<?xml version="1.0" encoding="UTF-8" standalone="no"?>
<!-- Created with Inkscape (http://www.inkscape.org/) -->

<svg
   width="327.48694mm"
   height="105.74802mm"
   viewBox="0 0 327.48693 105.74802"
   version="1.1"
   id="svg18461"
   inkscape:version="1.1.2 (0a00cf5339, 2022-02-04, custom)"
   sodipodi:docname="cpu-structure.svg"
   xmlns:inkscape="http://www.inkscape.org/namespaces/inkscape"
   xmlns:sodipodi="http://sodipodi.sourceforge.net/DTD/sodipodi-0.dtd"
   xmlns="http://www.w3.org/2000/svg"
   xmlns:svg="http://www.w3.org/2000/svg">
  <sodipodi:namedview
     id="namedview18463"
     pagecolor="#505050"
     bordercolor="#eeeeee"
     borderopacity="1"
     inkscape:pageshadow="0"
     inkscape:pageopacity="0"
     inkscape:pagecheckerboard="0"
     inkscape:document-units="mm"
     showgrid="false"
     inkscape:zoom="0.75067201"
     inkscape:cx="732.01078"
     inkscape:cy="285.0779"
     inkscape:window-width="1920"
     inkscape:window-height="1011"
     inkscape:window-x="0"
     inkscape:window-y="0"
     inkscape:window-maximized="1"
     inkscape:current-layer="g14324"
     inkscape:snap-bbox="true"
     inkscape:bbox-paths="true"
     inkscape:snap-bbox-midpoints="true"
     showguides="true"
     inkscape:guide-bbox="true">
    <sodipodi:guide
       position="150.40223,49.266842"
       orientation="0,-1"
       id="guide9769" />
    <sodipodi:guide
       position="218.02828,8.9633539"
       orientation="0,-1"
       id="guide9771" />
    <sodipodi:guide
       position="264.24217,37.896522"
       orientation="1,0"
       id="guide9855" />
  </sodipodi:namedview>
  <defs
     id="defs18458">
    <rect
       x="968.25537"
       y="219.10367"
       width="198.71742"
       height="65.124298"
       id="rect7963" />
    <marker
       style="overflow:visible"
       id="Arrow2Mstart"
       refX="0"
       refY="0"
       orient="auto"
       inkscape:stockid="Arrow2Mstart"
       inkscape:isstock="true">
      <path
         transform="scale(0.6)"
         d="M 8.7185878,4.0337352 -2.2072895,0.01601326 8.7185884,-4.0017078 c -1.7454984,2.3720609 -1.7354408,5.6174519 -6e-7,8.035443 z"
         style="fill:context-stroke;fill-rule:evenodd;stroke:context-stroke;stroke-width:0.625;stroke-linejoin:round"
         id="path1459" />
    </marker>
    <marker
       style="overflow:visible"
       id="Arrow2Lstart"
       refX="0"
       refY="0"
       orient="auto"
       inkscape:stockid="Arrow2Lstart"
       inkscape:isstock="true">
      <path
         transform="matrix(1.1,0,0,1.1,1.1,0)"
         d="M 8.7185878,4.0337352 -2.2072895,0.01601326 8.7185884,-4.0017078 c -1.7454984,2.3720609 -1.7354408,5.6174519 -6e-7,8.035443 z"
         style="fill:context-stroke;fill-rule:evenodd;stroke:context-stroke;stroke-width:0.625;stroke-linejoin:round"
         id="path1133" />
    </marker>
    <marker
       style="overflow:visible"
       id="marker1433"
       refX="0"
       refY="0"
       orient="auto"
       inkscape:stockid="Arrow2Mend"
       inkscape:isstock="true">
      <path
         transform="scale(-0.6)"
         d="M 8.7185878,4.0337352 -2.2072895,0.01601326 8.7185884,-4.0017078 c -1.7454984,2.3720609 -1.7354408,5.6174519 -6e-7,8.035443 z"
         style="fill:context-stroke;fill-rule:evenodd;stroke:context-stroke;stroke-width:0.625;stroke-linejoin:round"
         id="path1431" />
    </marker>
    <marker
       style="overflow:visible"
       id="Arrow2Mend"
       refX="0"
       refY="0"
       orient="auto"
       inkscape:stockid="Arrow2Mend"
       inkscape:isstock="true">
      <path
         transform="scale(-0.6)"
         d="M 8.7185878,4.0337352 -2.2072895,0.01601326 8.7185884,-4.0017078 c -1.7454984,2.3720609 -1.7354408,5.6174519 -6e-7,8.035443 z"
         style="fill:context-stroke;fill-rule:evenodd;stroke:context-stroke;stroke-width:0.625;stroke-linejoin:round"
         id="path1142" />
    </marker>
    <marker
       style="overflow:visible"
       id="marker1421"
       refX="0"
       refY="0"
       orient="auto"
       inkscape:stockid="Arrow2Mstart"
       inkscape:isstock="true">
      <path
         transform="scale(0.6)"
         d="M 8.7185878,4.0337352 -2.2072895,0.01601326 8.7185884,-4.0017078 c -1.7454984,2.3720609 -1.7354408,5.6174519 -6e-7,8.035443 z"
         style="fill:context-stroke;fill-rule:evenodd;stroke:context-stroke;stroke-width:0.625;stroke-linejoin:round"
         id="path1139" />
    </marker>
    <marker
       style="overflow:visible"
       id="Arrow2Send"
       refX="0"
       refY="0"
       orient="auto"
       inkscape:stockid="Arrow2Send"
       inkscape:isstock="true">
      <path
         transform="matrix(-0.3,0,0,-0.3,0.69,0)"
         d="M 8.7185878,4.0337352 -2.2072895,0.01601326 8.7185884,-4.0017078 c -1.7454984,2.3720609 -1.7354408,5.6174519 -6e-7,8.035443 z"
         style="fill:context-stroke;fill-rule:evenodd;stroke:context-stroke;stroke-width:0.625;stroke-linejoin:round"
         id="path1148" />
    </marker>
    <marker
       style="overflow:visible"
       id="marker1414"
       refX="0"
       refY="0"
       orient="auto"
       inkscape:stockid="Arrow2Lend"
       inkscape:isstock="true">
      <path
         transform="matrix(-1.1,0,0,-1.1,-1.1,0)"
         d="M 8.7185878,4.0337352 -2.2072895,0.01601326 8.7185884,-4.0017078 c -1.7454984,2.3720609 -1.7354408,5.6174519 -6e-7,8.035443 z"
         style="fill:context-stroke;fill-rule:evenodd;stroke:context-stroke;stroke-width:0.625;stroke-linejoin:round"
         id="path1412" />
    </marker>
    <marker
       style="overflow:visible"
       id="marker1404"
       refX="0"
       refY="0"
       orient="auto"
       inkscape:stockid="Arrow2Lend"
       inkscape:isstock="true">
      <path
         transform="matrix(-1.1,0,0,-1.1,-1.1,0)"
         d="M 8.7185878,4.0337352 -2.2072895,0.01601326 8.7185884,-4.0017078 c -1.7454984,2.3720609 -1.7354408,5.6174519 -6e-7,8.035443 z"
         style="fill:context-stroke;fill-rule:evenodd;stroke:context-stroke;stroke-width:0.625;stroke-linejoin:round"
         id="path1402" />
    </marker>
    <marker
       style="overflow:visible"
       id="Arrow2Lend"
       refX="0"
       refY="0"
       orient="auto"
       inkscape:stockid="Arrow2Lend"
       inkscape:isstock="true">
      <path
         transform="matrix(-1.1,0,0,-1.1,-1.1,0)"
         d="M 8.7185878,4.0337352 -2.2072895,0.01601326 8.7185884,-4.0017078 c -1.7454984,2.3720609 -1.7354408,5.6174519 -6e-7,8.035443 z"
         style="fill:context-stroke;fill-rule:evenodd;stroke:context-stroke;stroke-width:0.625;stroke-linejoin:round"
         id="path1136" />
    </marker>
    <marker
       style="overflow:visible"
       id="marker13099"
       refX="0"
       refY="0"
       orient="auto"
       inkscape:stockid="Arrow2Mstart"
       inkscape:isstock="true">
      <path
         transform="scale(0.6)"
         d="M 8.7185878,4.0337352 -2.2072895,0.01601326 8.7185884,-4.0017078 c -1.7454984,2.3720609 -1.7354408,5.6174519 -6e-7,8.035443 z"
         style="fill:#ffffff;fill-opacity:1;fill-rule:evenodd;stroke:#000000;stroke-width:0.625;stroke-linejoin:round;stroke-opacity:1"
         id="path13097" />
    </marker>
  </defs>
  <g
     inkscape:label="Layer 1"
     inkscape:groupmode="layer"
     id="layer1"
     transform="translate(88.145073,-40.81978)">
    <g
       id="g18341"
       transform="matrix(0.24429939,0,0,0.24429939,-346.25186,-28.343201)">
      <g
         id="g14324"
         transform="translate(-14.101085,16.2144)">
        <circle
           style="fill:#008000;fill-opacity:1;stroke:#000000;stroke-width:4;stroke-miterlimit:4;stroke-dasharray:none"
           id="path10239"
           cx="1161.2731"
           cy="359.2977"
           r="88.653641" />
        <text
           xml:space="preserve"
           style="font-size:53.3333px;line-height:1.25;font-family:'DejaVu Sans';-inkscape-font-specification:'DejaVu Sans';text-align:center;letter-spacing:0px;word-spacing:0px;writing-mode:lr-tb;text-anchor:middle"
           x="1163.6689"
           y="378.71176"
           id="text10243"><tspan
             sodipodi:role="line"
             id="tspan10241"
             x="1163.6689"
             y="378.71176">ASM</tspan></text>
        <rect
           style="fill:#ffffff;stroke:#000000;stroke-width:4;stroke-miterlimit:4;stroke-dasharray:none"
           id="rect10245"
           width="154.52066"
           height="427.9086"
           x="1318.5779"
           y="269.36996"
           ry="0" />
        <text
           xml:space="preserve"
           style="font-size:53.3333px;line-height:1.25;font-family:'DejaVu Sans';-inkscape-font-specification:'DejaVu Sans';text-align:center;letter-spacing:0px;word-spacing:0px;writing-mode:lr-tb;text-anchor:middle"
           x="1393.859"
           y="435.72012"
           id="text10249"><tspan
             sodipodi:role="line"
             id="tspan10247"
             x="1393.859"
             y="435.72012">Front</tspan><tspan
             sodipodi:role="line"
             x="1393.859"
             y="502.38675"
             id="tspan10251">-</tspan><tspan
             sodipodi:role="line"
             x="1393.859"
             y="569.05341"
             id="tspan10253">end</tspan></text>
        <rect
           style="fill:#ffffff;stroke:#000000;stroke-width:4;stroke-miterlimit:4;stroke-dasharray:none"
           id="rect10257"
           width="89.417297"
           height="428.8624"
           x="1720.1381"
           y="268.89307"
           ry="0" />
        <text
           xml:space="preserve"
           style="font-size:42.6667px;line-height:1;font-family:'DejaVu Sans';-inkscape-font-specification:'DejaVu Sans';text-align:center;letter-spacing:0px;word-spacing:0px;writing-mode:lr-tb;text-anchor:middle"
           x="1764.1437"
           y="328.49081"
           id="text10261"><tspan
             sodipodi:role="line"
             id="tspan10259"
             x="1764.1437"
             y="328.49081"
             style="font-size:42.6667px">S</tspan><tspan
             sodipodi:role="line"
             x="1764.1437"
             y="371.1575"
             id="tspan10263"
             style="font-size:42.6667px">C</tspan><tspan
             sodipodi:role="line"
             x="1764.1437"
             y="413.82422"
             id="tspan10265"
             style="font-size:42.6667px">H</tspan><tspan
             sodipodi:role="line"
             x="1764.1437"
             y="456.49091"
             id="tspan10269"
             style="font-size:42.6667px">E</tspan><tspan
             sodipodi:role="line"
             x="1764.1437"
             y="499.15759"
             id="tspan10273"
             style="font-size:42.6667px">D</tspan><tspan
             sodipodi:role="line"
             x="1764.1437"
             y="541.82428"
             id="tspan10275"
             style="font-size:42.6667px">U</tspan><tspan
             sodipodi:role="line"
             x="1764.1437"
             y="584.49103"
             id="tspan10277"
             style="font-size:42.6667px">L</tspan><tspan
             sodipodi:role="line"
             x="1764.1437"
             y="627.15771"
             id="tspan10279"
             style="font-size:42.6667px">E</tspan><tspan
             sodipodi:role="line"
             x="1764.1437"
             y="669.8244"
             id="tspan10281"
             style="font-size:42.6667px">R</tspan></text>
        <path
           style="fill:#ffffff;stroke:#000000;stroke-width:4;stroke-miterlimit:4;stroke-dasharray:none;marker-end:url(#marker1404)"
           d="m 1473.0806,495.18134 213.186,2.90827"
           id="path10463"
           sodipodi:nodetypes="cc" />
        <path
           style="fill:none;stroke:#000000;stroke-width:4;stroke-miterlimit:4;stroke-dasharray:none;marker-end:url(#marker1414)"
           d="m 1159.6353,448.9025 c 18.7793,49.39837 78.3323,58.26055 146.5685,57.06354"
           id="path10607"
           sodipodi:nodetypes="cc" />
        <rect
           style="opacity:1;fill:#caa331;fill-opacity:0.43921569;stroke:#000000;stroke-width:3.99963;stroke-miterlimit:4;stroke-dasharray:none;stroke-opacity:1"
           id="rect14118"
           width="74.453262"
           height="67.303925"
           x="1925.8561"
           y="269.93124"
           ry="0" />
        <text
           xml:space="preserve"
           style="font-size:42.6667px;line-height:1.25;font-family:'DejaVu Sans';-inkscape-font-specification:'DejaVu Sans';text-align:center;letter-spacing:0px;word-spacing:0px;writing-mode:lr-tb;text-anchor:middle"
           x="1962.9579"
           y="319.13531"
           id="text10785"><tspan
             sodipodi:role="line"
             id="tspan10783"
             x="1962.9579"
             y="319.13531"
             style="font-size:42.6667px">P1</tspan></text>
        <rect
           style="opacity:1;fill:#caa331;fill-opacity:0.43921569;stroke:#000000;stroke-width:3.99963;stroke-miterlimit:4;stroke-dasharray:none;stroke-opacity:1"
           id="rect14302"
           width="74.453262"
           height="67.303925"
           x="1925.8563"
           y="464.46597"
           ry="0" />
        <text
           xml:space="preserve"
           style="font-size:42.6667px;line-height:1.25;font-family:'DejaVu Sans';-inkscape-font-specification:'DejaVu Sans';text-align:center;letter-spacing:0px;word-spacing:0px;writing-mode:lr-tb;text-anchor:middle"
           x="1962.6974"
           y="513.64917"
           id="text10793"><tspan
             sodipodi:role="line"
             id="tspan10791"
             x="1962.6974"
             y="513.64917"
             style="font-size:42.6667px">P2</tspan></text>
        <rect
           style="opacity:1;fill:#caa331;fill-opacity:0.43921569;stroke:#000000;stroke-width:3.99963;stroke-miterlimit:4;stroke-dasharray:none;stroke-opacity:1"
           id="rect14304"
           width="74.453728"
           height="67.303925"
           x="1925.8561"
           y="629.41345"
           ry="0" />
        <text
           xml:space="preserve"
           style="font-size:42.6667px;line-height:1.25;font-family:'DejaVu Sans';-inkscape-font-specification:'DejaVu Sans';text-align:center;letter-spacing:0px;word-spacing:0px;writing-mode:lr-tb;text-anchor:middle"
           x="1962.1869"
           y="678.61749"
           id="text10797"><tspan
             sodipodi:role="line"
             id="tspan10795"
             x="1962.1869"
             y="678.61749"
             style="font-size:42.6667px">P3</tspan></text>
        <path
           style="fill:#ffffff;stroke:#000000;stroke-width:4.06336;stroke-miterlimit:4;stroke-dasharray:none;marker-end:url(#marker1433)"
           d="m 1807.9781,304.08499 109.4788,-0.46783"
           id="path10821"
           sodipodi:nodetypes="cc" />
        <path
           style="fill:#ffffff;stroke:#000000;stroke-width:4.06336;stroke-miterlimit:4;stroke-dasharray:none;marker-end:url(#marker1433)"
           d="m 1807.9781,498.50565 109.4788,-0.46783"
           id="path11041"
           sodipodi:nodetypes="cc" />
        <path
           style="fill:#ffffff;stroke:#000000;stroke-width:4.06336;stroke-miterlimit:4;stroke-dasharray:none;marker-end:url(#marker1433)"
           d="m 1807.9781,663.39605 109.4788,-0.46783"
           id="path11249"
           sodipodi:nodetypes="cc" />
        <path
           style="fill:#ffffff;stroke:#000000;stroke-width:4;stroke-miterlimit:4;stroke-dasharray:none;marker-start:url(#marker1421)"
           d="m 2032.7723,498.11793 94.9186,-0.22732"
           id="path11639"
           sodipodi:nodetypes="cc" />
        <text
           xml:space="preserve"
           style="font-style:normal;font-weight:normal;font-size:43.3212px;line-height:1.25;font-family:sans-serif;fill:#000000;fill-opacity:1;stroke:none;stroke-width:1.08303"
           x="2149.6094"
           y="514.26819"
           id="text3631"><tspan
             sodipodi:role="line"
             id="tspan3629"
             style="stroke-width:1.08303"
             x="2149.6094"
             y="514.26819">Can <tspan
   style="font-style:normal;font-variant:normal;font-weight:normal;font-stretch:normal;font-family:'DejaVu Sans';-inkscape-font-specification:'DejaVu Sans'"
   id="tspan4155">add</tspan></tspan></text>
        <text
           xml:space="preserve"
           transform="matrix(1.083029,0,0,1.083029,1070.6194,264.8931)"
           id="text7961"
           style="font-style:normal;font-weight:normal;font-size:40px;line-height:1.25;font-family:sans-serif;white-space:pre;shape-inside:url(#rect7963);fill:#000000;fill-opacity:1;stroke:none" />
        <text
           xml:space="preserve"
           style="font-style:normal;font-weight:normal;font-size:43.3212px;line-height:1.25;font-family:sans-serif;fill:#000000;fill-opacity:1;stroke:none;stroke-width:1.08303"
           x="2150.1021"
           y="679.2157"
           id="text9767"><tspan
             sodipodi:role="line"
             id="tspan9765"
             style="stroke-width:1.08303"
             x="2150.1021"
             y="679.2157">Can also <tspan
   style="font-style:normal;font-variant:normal;font-weight:normal;font-stretch:normal;font-family:'DejaVu Sans';-inkscape-font-specification:'DejaVu Sans'"
   id="tspan9763">add</tspan></tspan></text>
        <path
           style="fill:#ffffff;stroke:#000000;stroke-width:4;stroke-miterlimit:4;stroke-dasharray:none;marker-start:url(#marker1421)"
           d="m 2032.7723,663.06541 94.9186,-0.22732"
           id="path9853"
           sodipodi:nodetypes="cc" />
      </g>
    </g>
  </g>
</svg>
