<?xml version="1.0" encoding="UTF-8" standalone="no"?>
<!-- Created with Inkscape (http://www.inkscape.org/) -->

<svg
   width="1176.5616"
   height="591.01306"
   viewBox="0 0 311.29861 156.37221"
   version="1.1"
   id="svg5"
   inkscape:version="1.1.2 (0a00cf5339, 2022-02-04, custom)"
   sodipodi:docname="supported.svg"
   xmlns:inkscape="http://www.inkscape.org/namespaces/inkscape"
   xmlns:sodipodi="http://sodipodi.sourceforge.net/DTD/sodipodi-0.dtd"
   xmlns="http://www.w3.org/2000/svg"
   xmlns:svg="http://www.w3.org/2000/svg">
  <sodipodi:namedview
     id="namedview7"
     pagecolor="#ffffff"
     bordercolor="#666666"
     borderopacity="1.0"
     inkscape:pageshadow="2"
     inkscape:pageopacity="0.0"
     inkscape:pagecheckerboard="0"
     inkscape:document-units="mm"
     showgrid="false"
     units="px"
     inkscape:zoom="2.1997092"
     inkscape:cx="896.48214"
     inkscape:cy="293.67518"
     inkscape:window-width="1916"
     inkscape:window-height="1161"
     inkscape:window-x="0"
     inkscape:window-y="18"
     inkscape:window-maximized="1"
     inkscape:current-layer="layer7" />
  <defs
     id="defs2">
    <marker
       style="overflow:visible"
       id="Arrow1Sstart"
       refX="0"
       refY="0"
       orient="auto"
       inkscape:stockid="Arrow1Sstart"
       inkscape:isstock="true">
      <path
         transform="matrix(0.2,0,0,0.2,1.2,0)"
         style="fill:context-stroke;fill-rule:evenodd;stroke:context-stroke;stroke-width:1pt"
         d="M 0,0 5,-5 -12.5,0 5,5 Z"
         id="path69232" />
    </marker>
    <marker
       style="overflow:visible"
       id="Arrow2Send"
       refX="0"
       refY="0"
       orient="auto"
       inkscape:stockid="Arrow2Send"
       inkscape:isstock="true">
      <path
         transform="matrix(-0.3,0,0,-0.3,0.69,0)"
         d="M 8.7185878,4.0337352 -2.2072895,0.01601326 8.7185884,-4.0017078 c -1.7454984,2.3720609 -1.7354408,5.6174519 -6e-7,8.035443 z"
         style="fill:context-stroke;fill-rule:evenodd;stroke:context-stroke;stroke-width:0.625;stroke-linejoin:round"
         id="path69253" />
    </marker>
    <marker
       style="overflow:visible"
       id="Arrow1Send"
       refX="0"
       refY="0"
       orient="auto"
       inkscape:stockid="Arrow1Send"
       inkscape:isstock="true">
      <path
         transform="matrix(-0.2,0,0,-0.2,-1.2,0)"
         style="fill:context-stroke;fill-rule:evenodd;stroke:context-stroke;stroke-width:1pt"
         d="M 0,0 5,-5 -12.5,0 5,5 Z"
         id="path69235" />
    </marker>
    <rect
       x="222.17822"
       y="381.84222"
       width="233.35081"
       height="75.381592"
       id="rect143592" />
    <marker
       style="overflow:visible"
       id="Arrow2Mend"
       refX="0"
       refY="0"
       orient="auto"
       inkscape:stockid="Arrow2Mend"
       inkscape:isstock="true">
      <path
         transform="scale(-0.6)"
         d="M 8.7185878,4.0337352 -2.2072895,0.01601326 8.7185884,-4.0017078 c -1.7454984,2.3720609 -1.7354408,5.6174519 -6e-7,8.035443 z"
         style="fill:context-stroke;fill-rule:evenodd;stroke:context-stroke;stroke-width:0.625;stroke-linejoin:round"
         id="path69247" />
    </marker>
    <marker
       style="overflow:visible"
       id="Arrow1Lend"
       refX="0"
       refY="0"
       orient="auto"
       inkscape:stockid="Arrow1Lend"
       inkscape:isstock="true">
      <path
         transform="matrix(-0.8,0,0,-0.8,-10,0)"
         style="fill:context-stroke;fill-rule:evenodd;stroke:context-stroke;stroke-width:1pt"
         d="M 0,0 5,-5 -12.5,0 5,5 Z"
         id="path69223" />
    </marker>
    <marker
       style="overflow:visible"
       id="Arrow2Mend-4"
       refX="0"
       refY="0"
       orient="auto"
       inkscape:stockid="Arrow2Mend"
       inkscape:isstock="true">
      <path
         transform="scale(-0.6)"
         d="M 8.7185878,4.0337352 -2.2072895,0.01601326 8.7185884,-4.0017078 c -1.7454984,2.3720609 -1.7354408,5.6174519 -6e-7,8.035443 z"
         style="fill:context-stroke;fill-rule:evenodd;stroke:context-stroke;stroke-width:0.625;stroke-linejoin:round"
         id="path69247-4" />
    </marker>
    <marker
       style="overflow:visible"
       id="Arrow2Send-7"
       refX="0"
       refY="0"
       orient="auto"
       inkscape:stockid="Arrow2Send"
       inkscape:isstock="true">
      <path
         transform="matrix(-0.3,0,0,-0.3,0.69,0)"
         d="M 8.7185878,4.0337352 -2.2072895,0.01601326 8.7185884,-4.0017078 c -1.7454984,2.3720609 -1.7354408,5.6174519 -6e-7,8.035443 z"
         style="fill:context-stroke;fill-rule:evenodd;stroke:context-stroke;stroke-width:0.625;stroke-linejoin:round"
         id="path69253-2" />
    </marker>
    <marker
       style="overflow:visible"
       id="Arrow2Send-8"
       refX="0"
       refY="0"
       orient="auto"
       inkscape:stockid="Arrow2Send"
       inkscape:isstock="true">
      <path
         transform="matrix(-0.3,0,0,-0.3,0.69,0)"
         d="M 8.7185878,4.0337352 -2.2072895,0.01601326 8.7185884,-4.0017078 c -1.7454984,2.3720609 -1.7354408,5.6174519 -6e-7,8.035443 z"
         style="fill:context-stroke;fill-rule:evenodd;stroke:context-stroke;stroke-width:0.625;stroke-linejoin:round"
         id="path69253-9" />
    </marker>
    <marker
       style="overflow:visible"
       id="Arrow2Send-2"
       refX="0"
       refY="0"
       orient="auto"
       inkscape:stockid="Arrow2Send"
       inkscape:isstock="true">
      <path
         transform="matrix(-0.3,0,0,-0.3,0.69,0)"
         d="M 8.7185878,4.0337352 -2.2072895,0.01601326 8.7185884,-4.0017078 c -1.7454984,2.3720609 -1.7354408,5.6174519 -6e-7,8.035443 z"
         style="fill:context-stroke;fill-rule:evenodd;stroke:context-stroke;stroke-width:0.625;stroke-linejoin:round"
         id="path69253-4" />
    </marker>
    <marker
       style="overflow:visible"
       id="Arrow2Send-2-6"
       refX="0"
       refY="0"
       orient="auto"
       inkscape:stockid="Arrow2Send"
       inkscape:isstock="true">
      <path
         transform="matrix(-0.3,0,0,-0.3,0.69,0)"
         d="M 8.7185878,4.0337352 -2.2072895,0.01601326 8.7185884,-4.0017078 c -1.7454984,2.3720609 -1.7354408,5.6174519 -6e-7,8.035443 z"
         style="fill:context-stroke;fill-rule:evenodd;stroke:context-stroke;stroke-width:0.625;stroke-linejoin:round"
         id="path69253-4-5" />
    </marker>
  </defs>
  <g
     inkscape:label="ASM"
     inkscape:groupmode="layer"
     id="layer1"
     transform="translate(-17.632868,-11.877491)">
    <text
       xml:space="preserve"
       style="font-size:12.7px;line-height:1.25;font-family:'DejaVu Sans Mono';-inkscape-font-specification:'DejaVu Sans Mono, Normal';font-variant-ligatures:none;text-align:center;letter-spacing:0px;word-spacing:0px;writing-mode:lr-tb;text-anchor:middle;stroke-width:0.264583"
       x="87.396042"
       y="50.995937"
       id="text26614"><tspan
         sodipodi:role="line"
         id="tspan26612"
         style="stroke-width:0.264583"
         x="87.396042"
         y="50.995937" /></text>
    <g
       id="g66212"
       transform="translate(27.516678,-7.8093667)">
      <text
         xml:space="preserve"
         style="font-size:12.7px;line-height:1.25;font-family:'DejaVu Sans Mono';-inkscape-font-specification:'DejaVu Sans Mono, Normal';font-variant-ligatures:none;text-align:start;letter-spacing:0px;word-spacing:0px;writing-mode:lr-tb;text-anchor:start;fill:#008000;fill-opacity:1;stroke-width:0.264583"
         x="128.65489"
         y="62.142635"
         id="text22288-8"><tspan
           sodipodi:role="line"
           id="tspan22286-8"
           style="text-align:start;text-anchor:start;fill:#008000;fill-opacity:1;stroke-width:0.264583"
           x="128.65489"
           y="62.142635">%r0</tspan></text>
      <text
         xml:space="preserve"
         style="font-size:12.7px;line-height:1.25;font-family:'DejaVu Sans Mono';-inkscape-font-specification:'DejaVu Sans Mono, Normal';font-variant-ligatures:none;text-align:start;letter-spacing:0px;word-spacing:0px;writing-mode:lr-tb;text-anchor:start;fill:#008000;fill-opacity:1;stroke-width:0.264583"
         x="174.88446"
         y="62.142635"
         id="text22288-8-5"><tspan
           sodipodi:role="line"
           id="tspan22286-8-0"
           style="text-align:start;text-anchor:start;fill:#008000;fill-opacity:1;stroke-width:0.264583"
           x="174.88446"
           y="62.142635">%r1</tspan></text>
      <text
         xml:space="preserve"
         style="font-size:12.7px;line-height:1.25;font-family:'DejaVu Sans Mono';-inkscape-font-specification:'DejaVu Sans Mono, Normal';font-variant-ligatures:none;letter-spacing:0px;word-spacing:0px;writing-mode:lr-tb;stroke-width:0.264583"
         x="85.23851"
         y="62.142635"
         id="text29338"><tspan
           sodipodi:role="line"
           id="tspan29336"
           style="stroke-width:0.264583"
           x="85.23851"
           y="62.142635">add</tspan><tspan
           sodipodi:role="line"
           style="stroke-width:0.264583"
           x="85.23851"
           y="78.017632"
           id="tspan29340" /></text>
    </g>
    <g
       id="g66220"
       transform="translate(27.516678,-9.4566418)">
      <text
         xml:space="preserve"
         style="font-size:12.7px;line-height:1.25;font-family:'DejaVu Sans Mono';-inkscape-font-specification:'DejaVu Sans Mono, Normal';font-variant-ligatures:none;text-align:start;letter-spacing:0px;word-spacing:0px;writing-mode:lr-tb;text-anchor:start;fill:#008000;fill-opacity:1;stroke-width:0.264583"
         x="128.65489"
         y="90.014725"
         id="text22288-8-8"><tspan
           sodipodi:role="line"
           id="tspan22286-8-5"
           style="text-align:start;text-anchor:start;fill:#008000;fill-opacity:1;stroke-width:0.264583"
           x="128.65489"
           y="90.014725">%xmm0</tspan></text>
      <text
         xml:space="preserve"
         style="font-size:12.7px;line-height:1.25;font-family:'DejaVu Sans Mono';-inkscape-font-specification:'DejaVu Sans Mono, Normal';font-variant-ligatures:none;text-align:start;letter-spacing:0px;word-spacing:0px;writing-mode:lr-tb;text-anchor:start;fill:#008000;fill-opacity:1;stroke-width:0.264583"
         x="174.88446"
         y="90.014725"
         id="text22288-8-8-6"><tspan
           sodipodi:role="line"
           id="tspan22286-8-5-1"
           style="text-align:start;text-anchor:start;fill:#008000;fill-opacity:1;stroke-width:0.264583"
           x="174.88446"
           y="90.014725">%xmm1</tspan></text>
      <text
         xml:space="preserve"
         style="font-size:12.7px;line-height:1.25;font-family:'DejaVu Sans Mono';-inkscape-font-specification:'DejaVu Sans Mono, Normal';font-variant-ligatures:none;letter-spacing:0px;word-spacing:0px;writing-mode:lr-tb;stroke-width:0.264583"
         x="84.742416"
         y="90.014725"
         id="text29338-9"><tspan
           sodipodi:role="line"
           style="stroke-width:0.264583"
           x="84.742416"
           y="90.014725"
           id="tspan29340-3">sub</tspan></text>
    </g>
    <g
       id="g66203"
       transform="translate(27.516678)">
      <text
         xml:space="preserve"
         style="font-size:12.7px;line-height:1.25;font-family:'DejaVu Sans Mono';-inkscape-font-specification:'DejaVu Sans Mono, Normal';font-variant-ligatures:none;text-align:start;letter-spacing:0px;word-spacing:0px;writing-mode:lr-tb;text-anchor:start;stroke-width:0.264583"
         x="85.071075"
         y="27.395317"
         id="text17928"><tspan
           sodipodi:role="line"
           id="tspan17926"
           style="text-align:start;text-anchor:start;stroke-width:0.264583"
           x="85.071075"
           y="27.395317">load</tspan></text>
      <text
         xml:space="preserve"
         style="font-size:12.7px;line-height:1.25;font-family:'DejaVu Sans Mono';-inkscape-font-specification:'DejaVu Sans Mono, Normal';font-variant-ligatures:none;text-align:start;letter-spacing:0px;word-spacing:0px;writing-mode:lr-tb;text-anchor:start;fill:#008000;fill-opacity:1;stroke-width:0.264583"
         x="128.65489"
         y="27.395317"
         id="text22288"><tspan
           sodipodi:role="line"
           id="tspan22286"
           style="text-align:start;text-anchor:start;fill:#008000;fill-opacity:1;stroke-width:0.264583"
           x="128.65489"
           y="27.395317">%r0</tspan></text>
      <text
         xml:space="preserve"
         style="font-size:12.7px;line-height:1.25;font-family:'DejaVu Sans Mono';-inkscape-font-specification:'DejaVu Sans Mono, Normal';font-variant-ligatures:none;letter-spacing:0px;word-spacing:0px;writing-mode:lr-tb;stroke-width:0.264583"
         x="172.4474"
         y="27.395317"
         id="text31957"><tspan
           sodipodi:role="line"
           id="tspan31955"
           style="fill:#d40000;fill-opacity:1;stroke-width:0.264583"
           x="172.4474"
           y="27.395317">(…)</tspan></text>
    </g>
    <text
       xml:space="preserve"
       style="font-size:12.7px;line-height:1.25;font-family:'DejaVu Sans Mono';-inkscape-font-specification:'DejaVu Sans Mono, Normal';font-variant-ligatures:none;text-align:start;letter-spacing:0px;word-spacing:0px;writing-mode:lr-tb;text-anchor:start;stroke-width:0.264583"
       x="112.58776"
       y="106.67127"
       id="text17928-8"><tspan
         sodipodi:role="line"
         id="tspan17926-4"
         style="text-align:start;text-anchor:start;stroke-width:0.264583"
         x="112.58776"
         y="106.67127">store</tspan></text>
    <text
       xml:space="preserve"
       style="font-size:12.7px;line-height:1.25;font-family:'DejaVu Sans Mono';-inkscape-font-specification:'DejaVu Sans Mono, Normal';font-variant-ligatures:none;text-align:start;letter-spacing:0px;word-spacing:0px;writing-mode:lr-tb;text-anchor:start;fill:#008000;fill-opacity:1;stroke-width:0.264583"
       x="200.27376"
       y="107.3131"
       id="text22288-81"><tspan
         sodipodi:role="line"
         id="tspan22286-0"
         style="text-align:start;text-anchor:start;fill:#008000;fill-opacity:1;stroke-width:0.264583"
         x="200.27376"
         y="107.3131">%r0</tspan></text>
    <text
       xml:space="preserve"
       style="font-size:12.7px;line-height:1.25;font-family:'DejaVu Sans Mono';-inkscape-font-specification:'DejaVu Sans Mono, Normal';font-variant-ligatures:none;letter-spacing:0px;word-spacing:0px;writing-mode:lr-tb;stroke-width:0.264583"
       x="155.86111"
       y="106.02945"
       id="text31957-3"><tspan
         sodipodi:role="line"
         id="tspan31955-0"
         style="fill:#d40000;fill-opacity:1;stroke-width:0.264583"
         x="155.86111"
         y="106.02945">(…)</tspan></text>
    <path
       style="fill:#c17603;fill-opacity:1;stroke:#c17603;stroke-width:1;stroke-linecap:butt;stroke-linejoin:miter;stroke-miterlimit:4;stroke-dasharray:none;stroke-opacity:1;marker-end:url(#Arrow2Mend)"
       d="M 169.21476,29.466759 V 43.127964"
       id="path67815" />
    <path
       style="fill:none;fill-opacity:1;stroke:#c17603;stroke-width:1;stroke-linecap:butt;stroke-linejoin:miter;stroke-miterlimit:4;stroke-dasharray:none;stroke-opacity:1;marker-end:url(#Arrow2Mend-4)"
       d="m 169.21476,56.266688 25.41646,12.764642 c 6.61352,3.818315 -4.29888,16.453653 5.37312,22.037784 l 8.12262,6.130642"
       id="path67815-4"
       sodipodi:nodetypes="cccc" />
    <g
       id="g76267"
       transform="translate(27.516678)">
      <text
         xml:space="preserve"
         style="font-size:12.7px;line-height:1.25;font-family:'DejaVu Sans Mono';-inkscape-font-specification:'DejaVu Sans Mono, Normal';font-variant-ligatures:none;letter-spacing:0px;word-spacing:0px;writing-mode:lr-tb;stroke-width:0.264583"
         x="84.909843"
         y="131.77678"
         id="text29338-9-1"><tspan
           sodipodi:role="line"
           style="stroke-width:0.264583"
           x="84.909843"
           y="131.77678"
           id="tspan29340-3-5">jump</tspan></text>
      <text
         xml:space="preserve"
         style="font-size:12.7px;line-height:1.25;font-family:'DejaVu Sans Mono';-inkscape-font-specification:'DejaVu Sans Mono, Normal';font-variant-ligatures:none;letter-spacing:0px;word-spacing:0px;writing-mode:lr-tb;stroke-width:0.264583"
         x="128.34482"
         y="131.77678"
         id="text72464"><tspan
           sodipodi:role="line"
           id="tspan72462"
           style="stroke-width:0.264583"
           x="128.34482"
           y="131.77678">(…)</tspan><tspan
           sodipodi:role="line"
           style="stroke-width:0.264583"
           x="128.34482"
           y="147.65178"
           id="tspan72466" /></text>
    </g>
  </g>
  <g
     inkscape:groupmode="layer"
     id="layer2"
     inkscape:label="Basic block"
     transform="translate(-17.632868,-11.877491)"
     style="display:inline">
    <rect
       style="fill:none;fill-opacity:1;stroke:#4700cb;stroke-width:1;stroke-linejoin:round;stroke-miterlimit:4;stroke-dasharray:none;stroke-opacity:1"
       id="rect76292"
       width="144.88425"
       height="129.18945"
       x="105.92535"
       y="12.377491" />
    <text
       xml:space="preserve"
       style="font-style:italic;font-variant:normal;font-weight:normal;font-stretch:normal;font-size:10.5833px;line-height:1.1;font-family:'Noto Sans';-inkscape-font-specification:'Noto Sans, Italic';font-variant-ligatures:none;font-variant-caps:normal;font-variant-numeric:normal;font-variant-east-asian:normal;letter-spacing:0px;word-spacing:0px;writing-mode:lr-tb;fill:#4700cb;fill-opacity:1;stroke:none;stroke-width:0.265;stroke-miterlimit:4;stroke-dasharray:none;stroke-opacity:1"
       x="178.30891"
       y="154.06807"
       id="text80094"><tspan
         sodipodi:role="line"
         id="tspan80092"
         style="font-style:italic;font-variant:normal;font-weight:normal;font-stretch:normal;font-size:10.5833px;font-family:'Noto Sans';-inkscape-font-specification:'Noto Sans, Italic';font-variant-ligatures:none;font-variant-caps:normal;font-variant-numeric:normal;font-variant-east-asian:normal;text-align:center;text-anchor:middle;fill:#4700cb;fill-opacity:1;stroke:none;stroke-width:0.265;stroke-miterlimit:4;stroke-dasharray:none;stroke-opacity:1"
         x="178.30891"
         y="154.06807">Basic block:</tspan><tspan
         sodipodi:role="line"
         style="font-style:italic;font-variant:normal;font-weight:normal;font-stretch:normal;font-size:10.5833px;font-family:'Noto Sans';-inkscape-font-specification:'Noto Sans, Italic';font-variant-ligatures:none;font-variant-caps:normal;font-variant-numeric:normal;font-variant-east-asian:normal;text-align:center;text-anchor:middle;fill:#4700cb;fill-opacity:1;stroke:none;stroke-width:0.265;stroke-miterlimit:4;stroke-dasharray:none;stroke-opacity:1"
         x="178.30891"
         y="165.7097"
         id="tspan80096">PALMED scope</tspan></text>
    <text
       xml:space="preserve"
       style="font-style:italic;font-size:12.7px;line-height:1.25;font-family:C059;-inkscape-font-specification:'C059, Italic';font-variant-ligatures:none;letter-spacing:0px;word-spacing:0px;writing-mode:lr-tb;stroke-width:0.264583"
       x="7.4317842"
       y="27.242762"
       id="text122939"><tspan
         sodipodi:role="line"
         id="tspan122937"
         style="stroke-width:0.264583"
         x="7.4317842"
         y="27.242762" /></text>
  </g>
  <g
     inkscape:groupmode="layer"
     id="layer3"
     inkscape:label="Supports"
     transform="translate(-17.632868,-11.877491)"
     style="display:inline">
    <g
       id="g147609"
       transform="translate(6.3500003,-24.918437)">
      <text
         xml:space="preserve"
         style="font-style:italic;font-size:10.5833px;line-height:1.25;font-family:'Noto Sans';-inkscape-font-specification:'Noto Sans, Italic';font-variant-ligatures:none;letter-spacing:0px;word-spacing:0px;writing-mode:lr-tb;stroke-width:0.264583"
         x="22.628765"
         y="53.685165"
         id="text131303"><tspan
           sodipodi:role="line"
           id="tspan131301"
           style="fill:#12a017;fill-opacity:1;stroke-width:0.264583"
           x="22.628765"
           y="53.685165">arithmetic,</tspan><tspan
           sodipodi:role="line"
           style="fill:#12a017;fill-opacity:1;stroke-width:0.264583"
           x="22.628765"
           y="66.914291"
           id="tspan133197">logical</tspan></text>
      <g
         id="g142666"
         transform="matrix(0.59737125,0,0,0.59737125,2.0073012,1.8236862)">
        <rect
           style="fill:none;fill-opacity:1;stroke:#000000;stroke-width:0.75;stroke-linecap:round;stroke-linejoin:round;stroke-miterlimit:4;stroke-dasharray:none;stroke-opacity:0.994932"
           id="rect141590"
           width="11.763949"
           height="11.763949"
           x="16.54146"
           y="88.520172" />
        <path
           style="fill:none;stroke:#12a017;stroke-width:2;stroke-linecap:round;stroke-linejoin:round;stroke-miterlimit:4;stroke-dasharray:none;stroke-opacity:1"
           d="m 18.273914,91.742564 4.468586,6.419109 5.918215,-11.25546"
           id="path138242" />
      </g>
    </g>
    <g
       id="g168457"
       transform="translate(0,15.890453)">
      <text
         xml:space="preserve"
         style="font-style:italic;font-size:10.5833px;line-height:1.25;font-family:'Noto Sans';-inkscape-font-specification:'Noto Sans, Italic';font-variant-ligatures:none;letter-spacing:0px;word-spacing:0px;writing-mode:lr-tb;stroke-width:0.264583"
         x="278.13162"
         y="41.874588"
         id="text131303-1"><tspan
           sodipodi:role="line"
           style="fill:#12a017;fill-opacity:1;stroke-width:0.264583"
           x="278.13162"
           y="41.874588"
           id="tspan146801">load/store</tspan></text>
      <g
         id="g142666-1"
         transform="matrix(0.59737125,0,0,0.59737125,257.51015,-17.818533)">
        <rect
           style="fill:none;fill-opacity:1;stroke:#000000;stroke-width:0.75;stroke-linecap:round;stroke-linejoin:round;stroke-miterlimit:4;stroke-dasharray:none;stroke-opacity:0.994932"
           id="rect141590-5"
           width="11.763949"
           height="11.763949"
           x="16.54146"
           y="88.520172" />
        <path
           style="fill:none;stroke:#12a017;stroke-width:2;stroke-linecap:round;stroke-linejoin:round;stroke-miterlimit:4;stroke-dasharray:none;stroke-opacity:1"
           d="m 18.273914,91.742564 4.468586,6.419109 5.918215,-11.25546"
           id="path138242-5" />
      </g>
    </g>
    <g
       id="g147617"
       transform="translate(6.3500003,-16.251957)">
      <text
         xml:space="preserve"
         style="font-style:italic;font-size:10.5833px;line-height:1.25;font-family:'Noto Sans';-inkscape-font-specification:'Noto Sans, Italic';font-variant-ligatures:none;letter-spacing:0px;word-spacing:0px;writing-mode:lr-tb;stroke-width:0.264583"
         x="22.246954"
         y="91.734848"
         id="text131303-0"><tspan
           sodipodi:role="line"
           style="fill:#12a017;fill-opacity:1;stroke-width:0.264583"
           x="22.246954"
           y="91.734848"
           id="tspan133197-5">vector</tspan><tspan
           sodipodi:role="line"
           style="fill:#12a017;fill-opacity:1;stroke-width:0.264583"
           x="22.246954"
           y="104.96397"
           id="tspan145008">instructions</tspan></text>
      <g
         id="g142666-3"
         transform="matrix(0.59737125,0,0,0.59737125,1.6254897,39.196038)">
        <rect
           style="fill:none;fill-opacity:1;stroke:#000000;stroke-width:0.75;stroke-linecap:round;stroke-linejoin:round;stroke-miterlimit:4;stroke-dasharray:none;stroke-opacity:0.994932"
           id="rect141590-9"
           width="11.763949"
           height="11.763949"
           x="16.54146"
           y="88.520172" />
        <path
           style="fill:none;stroke:#12a017;stroke-width:2;stroke-linecap:round;stroke-linejoin:round;stroke-miterlimit:4;stroke-dasharray:none;stroke-opacity:1"
           d="m 18.273914,91.742564 4.468586,6.419109 5.918215,-11.25546"
           id="path138242-4" />
      </g>
    </g>
    <text
       xml:space="preserve"
       transform="scale(0.26458333)"
       id="text143590"
       style="font-style:italic;font-size:40px;line-height:1.25;font-family:'Noto Sans';-inkscape-font-specification:'Noto Sans, Italic';font-variant-ligatures:none;letter-spacing:0px;word-spacing:0px;writing-mode:lr-tb;white-space:pre;shape-inside:url(#rect143592)" />
    <path
       style="fill:none;stroke:#4884c6;stroke-width:1.3;stroke-linecap:butt;stroke-linejoin:miter;stroke-miterlimit:4;stroke-dasharray:none;stroke-opacity:1;marker-end:url(#Arrow2Send-7)"
       d="m 71.344455,73.982832 c 3.0684,-1.16527 13.257721,-1.352927 16.50561,-0.554547 2.383277,1.16135 1.304533,3.077944 1.932283,5.221774 1.06633,1.91851 8.389029,0.664799 10.196849,0.714159 0.964063,0.0321 9.799363,-1.921011 10.860643,-2.108951"
       id="path169417-5"
       sodipodi:nodetypes="ccccc" />
    <path
       style="fill:none;stroke:#4884c6;stroke-width:1.3;stroke-linecap:butt;stroke-linejoin:miter;stroke-miterlimit:4;stroke-dasharray:none;stroke-opacity:1;marker-end:url(#Arrow2Send)"
       d="m 72.331897,37.393215 c 3.383001,-1.787637 6.984496,-3.355898 10.852868,-3.598588 3.110271,-0.501317 6.246292,-0.857279 9.401883,-0.773384 2.145347,0.04251 4.310139,-0.163915 6.442115,0.0548 3.478237,0.66086 6.877007,1.804749 10.079437,3.301152 1.66351,1.316113 4.70748,2.431605 6.21298,4.257361 1.45243,1.761407 1.45243,1.761407 1.45243,1.761407"
       id="path172261"
       sodipodi:nodetypes="cccccsc" />
    <path
       style="fill:none;stroke:#4884c6;stroke-width:1.3;stroke-linecap:butt;stroke-linejoin:miter;stroke-miterlimit:4;stroke-dasharray:none;stroke-opacity:1;marker-start:url(#Arrow1Sstart);marker-end:url(#Arrow2Send)"
       d="m 227.37983,27.926091 c 3.62867,0.241195 8.94054,0.932485 11.42621,2.979493 10.83174,8.920226 8.63586,27.528218 8.53868,40.01425 -0.14478,12.28342 0.34579,26.661463 -10.66344,30.512676 -2.44098,0.85389 -7.27924,1.51767 -10.64141,1.81383"
       id="path190194"
       sodipodi:nodetypes="cscsc" />
    <path
       style="fill:none;stroke:#4884c6;stroke-width:1.3;stroke-linecap:butt;stroke-linejoin:miter;stroke-miterlimit:4;stroke-dasharray:none;stroke-opacity:1"
       d="m 263.39163,54.859496 c -1.43893,-0.572281 -6.36093,-0.823122 -9.55307,5.930254 -3.12727,6.616143 -5.30798,7.296703 -6.45297,7.512792"
       id="path195731"
       sodipodi:nodetypes="csc" />
  </g>
  <g
     inkscape:groupmode="layer"
     id="layer7"
     inkscape:label="Unsupports"
     style="display:inline">
    <g
       id="g168442"
       transform="translate(-17.632868,16.755795)"
       style="display:inline">
      <g
         id="g152884"
         transform="translate(7.0459614,-44.203139)">
        <rect
           style="fill:none;fill-opacity:1;stroke:#000000;stroke-width:0.448028;stroke-linecap:round;stroke-linejoin:round;stroke-miterlimit:4;stroke-dasharray:none;stroke-opacity:0.994932"
           id="rect141590-5-9-3"
           width="7.0274453"
           height="7.0274453"
           x="260.34558"
           y="112.17038" />
        <path
           style="fill:none;stroke:#ff4545;stroke-width:1.195;stroke-linecap:round;stroke-linejoin:round;stroke-miterlimit:4;stroke-dasharray:none;stroke-opacity:1"
           d="m 261.15608,112.02313 c 0.15877,1.5308 2.31702,4.62196 5.20824,6.13855"
           id="path147929"
           sodipodi:nodetypes="cc" />
        <path
           id="path147931"
           style="fill:none;stroke:#ff4545;stroke-width:4.51654;stroke-linecap:round;stroke-linejoin:round;stroke-miterlimit:4;stroke-dasharray:none;stroke-opacity:1"
           d="m 1005.6524,427.76508 -17.15348,18.12025 z"
           sodipodi:nodetypes="ccc"
           transform="scale(0.26458333)" />
      </g>
      <text
         xml:space="preserve"
         style="font-style:italic;font-size:10.5833px;line-height:1.25;font-family:'Noto Sans';-inkscape-font-specification:'Noto Sans, Italic';font-variant-ligatures:none;letter-spacing:0px;word-spacing:0px;writing-mode:lr-tb;fill:#ff4545;fill-opacity:1;stroke-width:0.264583"
         x="278.12103"
         y="67.338951"
         id="text154266"><tspan
           sodipodi:role="line"
           id="tspan154264"
           style="fill:#ff4545;fill-opacity:1;stroke-width:0.264583"
           x="278.12103"
           y="67.338951">caches,</tspan><tspan
           sodipodi:role="line"
           style="fill:#ff4545;fill-opacity:1;stroke-width:0.264583"
           x="278.12103"
           y="80.568077"
           id="tspan154268">memory</tspan></text>
    </g>
    <g
       id="g183281"
       transform="translate(-262.45799,-11.877491)"
       style="display:inline">
      <g
         id="g152884-8"
         transform="translate(7.0459614,9.2835485)">
        <rect
           style="fill:none;fill-opacity:1;stroke:#000000;stroke-width:0.448028;stroke-linecap:round;stroke-linejoin:round;stroke-miterlimit:4;stroke-dasharray:none;stroke-opacity:0.994932"
           id="rect141590-5-9-3-5"
           width="7.0274453"
           height="7.0274453"
           x="260.34558"
           y="112.17038" />
        <path
           style="fill:none;stroke:#ff4545;stroke-width:1.195;stroke-linecap:round;stroke-linejoin:round;stroke-miterlimit:4;stroke-dasharray:none;stroke-opacity:1"
           d="m 261.15608,112.02313 c 0.15877,1.5308 2.31702,4.62196 5.20824,6.13855"
           id="path147929-2"
           sodipodi:nodetypes="cc" />
        <path
           id="path147931-2"
           style="fill:none;stroke:#ff4545;stroke-width:4.51654;stroke-linecap:round;stroke-linejoin:round;stroke-miterlimit:4;stroke-dasharray:none;stroke-opacity:1"
           d="m 1005.6524,427.76508 -17.15348,18.12025 z"
           sodipodi:nodetypes="ccc"
           transform="scale(0.26458333)" />
      </g>
      <text
         xml:space="preserve"
         style="font-style:italic;font-size:10.5833px;line-height:1.25;font-family:'Noto Sans';-inkscape-font-specification:'Noto Sans, Italic';font-variant-ligatures:none;letter-spacing:0px;word-spacing:0px;writing-mode:lr-tb;fill:#ff4545;fill-opacity:1;stroke-width:0.264583"
         x="277.90936"
         y="127.45894"
         id="text154266-2"><tspan
           sodipodi:role="line"
           style="fill:#ff4545;fill-opacity:1;stroke-width:0.264583"
           x="277.90936"
           y="127.45894"
           id="tspan161897">data deps</tspan></text>
    </g>
    <g
       id="g169382"
       transform="translate(234.80134,-8.7024908)"
       style="display:inline">
      <g
         id="g152884-8-4"
         transform="translate(-250.09779,27.275223)">
        <rect
           style="fill:none;fill-opacity:1;stroke:#000000;stroke-width:0.448028;stroke-linecap:round;stroke-linejoin:round;stroke-miterlimit:4;stroke-dasharray:none;stroke-opacity:0.994932"
           id="rect141590-5-9-3-5-6"
           width="7.0274453"
           height="7.0274453"
           x="260.34558"
           y="112.17038" />
        <path
           style="fill:none;stroke:#ff4545;stroke-width:1.195;stroke-linecap:round;stroke-linejoin:round;stroke-miterlimit:4;stroke-dasharray:none;stroke-opacity:1"
           d="m 261.15608,112.02313 c 0.15877,1.5308 2.31702,4.62196 5.20824,6.13855"
           id="path147929-2-3"
           sodipodi:nodetypes="cc" />
        <path
           id="path147931-2-6"
           style="fill:none;stroke:#ff4545;stroke-width:4.51654;stroke-linecap:round;stroke-linejoin:round;stroke-miterlimit:4;stroke-dasharray:none;stroke-opacity:1"
           d="m 1005.6524,427.76508 -17.15348,18.12025 z"
           sodipodi:nodetypes="ccc"
           transform="scale(0.26458333)" />
      </g>
      <text
         xml:space="preserve"
         style="font-style:italic;font-size:10.5833px;line-height:1.25;font-family:'Noto Sans';-inkscape-font-specification:'Noto Sans, Italic';font-variant-ligatures:none;letter-spacing:0px;word-spacing:0px;writing-mode:lr-tb;fill:#ff4545;fill-opacity:1;stroke-width:0.264583"
         x="20.765614"
         y="140.07959"
         id="text154266-2-3"><tspan
           sodipodi:role="line"
           style="fill:#ff4545;fill-opacity:1;stroke-width:0.264583"
           x="20.765614"
           y="140.07959"
           id="tspan161897-3">control flow</tspan><tspan
           sodipodi:role="line"
           style="fill:#ff4545;fill-opacity:1;stroke-width:0.264583"
           x="20.765614"
           y="153.30872"
           id="tspan169291">instructions</tspan></text>
    </g>
    <path
       style="display:inline;fill:none;stroke:#4884c6;stroke-width:1.3;stroke-linecap:butt;stroke-linejoin:miter;stroke-miterlimit:4;stroke-dasharray:none;stroke-opacity:1;marker-end:url(#Arrow2Send)"
       d="m 86.775596,125.3076 c 8.280426,1.79316 13.192606,-7.13291 14.289124,-14.04264 1.45774,-8.6118 6.54496,-17.277777 15.76527,-18.930566 10.60598,-2.553903 30.6159,0.756567 41.39456,-0.416024 13.53766,-0.416048 21.13286,-1.916581 34.28664,-4.5155"
       id="path187095"
       sodipodi:nodetypes="cssss"
       transform="translate(-17.632868,-11.877491)" />
    <path
       style="display:inline;fill:none;stroke:#4884c6;stroke-width:1.3;stroke-linecap:butt;stroke-linejoin:miter;stroke-miterlimit:4;stroke-dasharray:none;stroke-opacity:1;marker-end:url(#Arrow2Send)"
       d="m 259.37325,144.78911 c -9.28867,3.45102 -20.06958,7.15305 -29.14503,3.14895 -9.65664,-3.0439 -17.17846,-9.9588 -25.64132,-15.16225 -8.32079,-3.5709 -11.33029,-6.66424 -20.29029,-4.46013"
       id="path282005"
       sodipodi:nodetypes="cccc"
       transform="translate(-17.632868,-11.877491)" />
    <path
       style="fill:none;stroke:#4884c6;stroke-width:1.3;stroke-linecap:butt;stroke-linejoin:miter;stroke-opacity:1;font-variation-settings:normal;opacity:1;vector-effect:none;fill-opacity:1;stroke-miterlimit:4;stroke-dasharray:none;stroke-dashoffset:0;-inkscape-stroke:none;stop-color:#000000;stop-opacity:1"
       d="m 247.67375,88.71878 c -9.06401,0.41665 -5.33958,-13.004466 -9.40644,-16.519715 -2.64958,-2.583147 -5.79829,-2.368538 -9.10702,-2.33681"
       id="path310500"
       sodipodi:nodetypes="ccc" />
  </g>
</svg>
